
<input id=IsToWay name=IsToWay type=hidden value=False />
<div id=departior-container>
<div class=search-between>
<p id=SelectDE class=sb-text>پرواز رفت را انتخاب کنید</p>
<span class=next-day-btn>
<a href="/fa/FlightResult/SearchOtherDay?FSL_Id=cc845d61-5af9-4c95-a728-09ffb566f4cb&amp;DayStatus=Tomorrow&amp;RouteType=Depart" class=btn><span class=ion-chevron-left></span>روز بعد</a>
</span>
<span class=prev-day-btn>
<a href="/fa/FlightResult/SearchOtherDay?FSL_Id=cc845d61-5af9-4c95-a728-09ffb566f4cb&amp;DayStatus=Yesterday&amp;RouteType=Depart" class=btn><span class=ion-chevron-right></span> روز قبل</a>
</span>
</div>
<div class="search-result flights-boxs depart" amount=180250 airline="ZV," flightType=NoneStop SourceDepartTime=0615 SourceArrivalTime=0000 DestinationDepartTime=0615 DestinationArrivalTime=0000 CombinationID=90344cb7-27d3-49d1-92d4-9d2c390f715b CabinTypeName="اکونومی">
<div class=sr-order>
<img class=sr-img src="/Uploads/Airlines/Logo/ZV.png" alt="" title=""/>
<span class=descr>قیمت برای 1 مسافر</span>
<span class=price>180,250 تومان</span>
<span class=city>زاگرس - ايرباس320</span>
<button name=select class="btn btn-orange item-submit depart" onclick="CharterAlert(this)">انتخاب</button>
</div>
<div class=sr-info>
<div class=sr-info-went>
<div class=one>
<span class=hour>06:15</span>
<span class=name>تهران</span>
<span class=abbr></span>
</div>
<div class=time>
<span class=val></span>
<div class=arrow>
<span class=arrow-width></span>
<span class="icon ion-arrow-left-b went" title=c9a7c7a8-d800-4b73-b471-74e46398c24c></span>
</div>
</div>
<div class=two>
<span class=hour>
</span>
<span class=name>کیش</span>
<span class=abbr></span>
</div>
<div class=stop>
<span class=title>غیرقابل استرداد</span>
<span class=title title=R>چارتر</span>
<span class=title>اکونومی</span>
<span class=title>ظرفیت : 5 نفر</span>
</div>
</div>
</div>
<div class=sr-other>
<a class="btn btn-default left rules-btn" data-ajax=true data-ajax-begin="InProgressBlockUIEmpty();" data-ajax-method=Get data-ajax-success="BlockUIAlert(data);" href="/fa/FlightResult/FlightRule?FSL_Id=cc845d61-5af9-4c95-a728-09ffb566f4cb&amp;RecommendationID=cecd2b6d-e0af-4118-b21e-3d29ca854282&amp;CombinationID=90344cb7-27d3-49d1-92d4-9d2c390f715b">قوانین بلیط</a>
</div>
</div>
<div class="search-result flights-boxs depart" amount=180250 airline="ZV," flightType=NoneStop SourceDepartTime=0625 SourceArrivalTime=0000 DestinationDepartTime=0625 DestinationArrivalTime=0000 CombinationID=7458e867-80c6-44c5-b461-23d149e7b670 CabinTypeName="اکونومی">
<div class=sr-order>
<img class=sr-img src="/Uploads/Airlines/Logo/ZV.png" alt="" title=""/>
<span class=descr>قیمت برای 1 مسافر</span>
<span class=price>180,250 تومان</span>
<span class=city>زاگرس - ايرباس320</span>
<button name=select class="btn btn-orange item-submit depart" onclick="CharterAlert(this)">انتخاب</button>
</div>
<div class=sr-info>
<div class=sr-info-went>
<div class=one>
<span class=hour>06:25</span>
<span class=name>تهران - مهرآباد</span>
<span class=abbr>THR</span>
</div>
<div class=time>
<span class=val></span>
<div class=arrow>
<span class=arrow-width></span>
<span class="icon ion-arrow-left-b went" title=417b38b5-8d5c-4b3a-993d-50ef77c879a4></span>
</div>
</div>
<div class=two>
<span class=hour>
</span>
<span class=name>کيش</span>
<span class=abbr>KIH</span>
</div>
<div class=stop>
<span class=title>غیرقابل استرداد</span>
<span class=title title=X>چارتر</span>
<span class=title>اکونومی</span>
<span class=title>ظرفیت : 9 نفر</span>
</div>
</div>
</div>
<div class=sr-other>
<a class="btn btn-default left rules-btn" data-ajax=true data-ajax-begin="InProgressBlockUIEmpty();" data-ajax-method=Get data-ajax-success="BlockUIAlert(data);" href="/fa/FlightResult/FlightRule?FSL_Id=cc845d61-5af9-4c95-a728-09ffb566f4cb&amp;RecommendationID=a35e42cf-f012-4160-a2e1-4c877d3cad7f&amp;CombinationID=7458e867-80c6-44c5-b461-23d149e7b670">قوانین بلیط</a>
</div>
</div>
<div class="search-result flights-boxs depart" amount=184370 airline="ZV," flightType=NoneStop SourceDepartTime=1745 SourceArrivalTime=0000 DestinationDepartTime=1745 DestinationArrivalTime=0000 CombinationID=a9334339-3478-4246-a53e-c8bc31b09ce4 CabinTypeName="اکونومی">
<div class=sr-order>
<img class=sr-img src="/Uploads/Airlines/Logo/ZV.png" alt="" title=""/>
<span class=descr>قیمت برای 1 مسافر</span>
<span class=price>184,370 تومان</span>
<span class=city>زاگرس - بوئينگ</span>
<button name=select class="btn btn-orange item-submit depart" onclick="CharterAlert(this)">انتخاب</button>
</div>
<div class=sr-info>
<div class=sr-info-went>
<div class=one>
<span class=hour>17:45</span>
<span class=name>تهران - مهرآباد</span>
<span class=abbr>THR</span>
</div>
<div class=time>
<span class=val></span>
<div class=arrow>
<span class=arrow-width></span>
<span class="icon ion-arrow-left-b went" title=417b38b5-8d5c-4b3a-993d-50ef77c879a4></span>
</div>
</div>
<div class=two>
<span class=hour>
</span>
<span class=name>کيش</span>
<span class=abbr>KIH</span>
</div>
<div class=stop>
<span class=title>غیرقابل استرداد</span>
<span class=title title=X>چارتر</span>
<span class=title>اکونومی</span>
<span class=title>ظرفیت : 4 نفر</span>
</div>
</div>
</div>
<div class=sr-other>
<a class="btn btn-default left rules-btn" data-ajax=true data-ajax-begin="InProgressBlockUIEmpty();" data-ajax-method=Get data-ajax-success="BlockUIAlert(data);" href="/fa/FlightResult/FlightRule?FSL_Id=cc845d61-5af9-4c95-a728-09ffb566f4cb&amp;RecommendationID=c6264da6-997d-4a10-8462-3f45991ec364&amp;CombinationID=a9334339-3478-4246-a53e-c8bc31b09ce4">قوانین بلیط</a>
</div>
</div>
<div class="search-result flights-boxs depart" amount=195700 airline="ZV," flightType=NoneStop SourceDepartTime=1715 SourceArrivalTime=0000 DestinationDepartTime=1715 DestinationArrivalTime=0000 CombinationID=13121e03-0f00-4a80-b682-5f4a313491ff CabinTypeName="اکونومی">
<div class=sr-order>
<img class=sr-img src="/Uploads/Airlines/Logo/ZV.png" alt="" title=""/>
<span class=descr>قیمت برای 1 مسافر</span>
<span class=price>195,700 تومان</span>
<span class=city>زاگرس - ايرباس320</span>
<button name=select class="btn btn-orange item-submit depart" onclick="CharterAlert(this)">انتخاب</button>
</div>
<div class=sr-info>
<div class=sr-info-went>
<div class=one>
<span class=hour>17:15</span>
<span class=name>تهران</span>
<span class=abbr></span>
</div>
<div class=time>
<span class=val></span>
<div class=arrow>
<span class=arrow-width></span>
<span class="icon ion-arrow-left-b went" title=c9a7c7a8-d800-4b73-b471-74e46398c24c></span>
</div>
</div>
<div class=two>
<span class=hour>
</span>
<span class=name>کیش</span>
<span class=abbr></span>
</div>
<div class=stop>
<span class=title>غیرقابل استرداد</span>
<span class=title title=R>چارتر</span>
<span class=title>اکونومی</span>
<span class=title>ظرفیت : 5 نفر</span>
</div>
</div>
</div>
<div class=sr-other>
<a class="btn btn-default left rules-btn" data-ajax=true data-ajax-begin="InProgressBlockUIEmpty();" data-ajax-method=Get data-ajax-success="BlockUIAlert(data);" href="/fa/FlightResult/FlightRule?FSL_Id=cc845d61-5af9-4c95-a728-09ffb566f4cb&amp;RecommendationID=22d39bd9-ed0a-4816-97a0-45765d2322fa&amp;CombinationID=13121e03-0f00-4a80-b682-5f4a313491ff">قوانین بلیط</a>
</div>
</div>
<div class="search-result flights-boxs depart" amount=195700 airline="I3," flightType=NoneStop SourceDepartTime=1725 SourceArrivalTime=0000 DestinationDepartTime=1725 DestinationArrivalTime=0000 CombinationID=4ecefbfa-eddc-4819-a831-4a56cb1304f3 CabinTypeName="اکونومی">
<div class=sr-order>
<img class=sr-img src="/Uploads/Airlines/Logo/I3.png" alt="" title=""/>
<span class=descr>قیمت برای 1 مسافر</span>
<span class=price>195,700 تومان</span>
<span class=city>آتا - B-MD</span>
<button name=select class="btn btn-orange item-submit depart" onclick="CharterAlert(this)">انتخاب</button>
</div>
<div class=sr-info>
<div class=sr-info-went>
<div class=one>
<span class=hour>17:25</span>
<span class=name>تهران</span>
<span class=abbr></span>
</div>
<div class=time>
<span class=val></span>
<div class=arrow>
<span class=arrow-width></span>
<span class="icon ion-arrow-left-b went" title=c9a7c7a8-d800-4b73-b471-74e46398c24c></span>
</div>
</div>
<div class=two>
<span class=hour>
</span>
<span class=name>کیش</span>
<span class=abbr></span>
</div>
<div class=stop>
<span class=title>غیرقابل استرداد</span>
<span class=title title=R>چارتر</span>
<span class=title>اکونومی</span>
<span class=title>ظرفیت : 8 نفر</span>
</div>
</div>
</div>
<div class=sr-other>
<a class="btn btn-default left rules-btn" data-ajax=true data-ajax-begin="InProgressBlockUIEmpty();" data-ajax-method=Get data-ajax-success="BlockUIAlert(data);" href="/fa/FlightResult/FlightRule?FSL_Id=cc845d61-5af9-4c95-a728-09ffb566f4cb&amp;RecommendationID=1e7db260-df56-4870-a6a2-4e6a67db0326&amp;CombinationID=4ecefbfa-eddc-4819-a831-4a56cb1304f3">قوانین بلیط</a>
</div>
</div>
<div class="search-result flights-boxs depart" amount=206000 airline="SR," flightType=NoneStop SourceDepartTime=1740 SourceArrivalTime=0000 DestinationDepartTime=1740 DestinationArrivalTime=0000 CombinationID=b48cfa7c-e7ec-4b1c-8464-4788cf0d0511 CabinTypeName="اکونومی">
<div class=sr-order>
<img class=sr-img src="/Uploads/Airlines/Logo/SR.png" alt="" title=""/>
<span class=descr>قیمت برای 1 مسافر</span>
<span class=price>206,000 تومان</span>
<span class=city>سپهران - بوئينگ 737</span>
<button name=select class="btn btn-orange item-submit depart" onclick="CharterAlert(this)">انتخاب</button>
</div>
<div class=sr-info>
<div class=sr-info-went>
<div class=one>
<span class=hour>17:40</span>
<span class=name>تهران</span>
<span class=abbr></span>
</div>
<div class=time>
<span class=val></span>
<div class=arrow>
<span class=arrow-width></span>
<span class="icon ion-arrow-left-b went" title=c9a7c7a8-d800-4b73-b471-74e46398c24c></span>
</div>
</div>
<div class=two>
<span class=hour>
</span>
<span class=name>کیش</span>
<span class=abbr></span>
</div>
<div class=stop>
<span class=title>غیرقابل استرداد</span>
<span class=title title=R>چارتر</span>
<span class=title>اکونومی</span>
<span class=title>ظرفیت : 5 نفر</span>
</div>
</div>
</div>
<div class=sr-other>
<a class="btn btn-default left rules-btn" data-ajax=true data-ajax-begin="InProgressBlockUIEmpty();" data-ajax-method=Get data-ajax-success="BlockUIAlert(data);" href="/fa/FlightResult/FlightRule?FSL_Id=cc845d61-5af9-4c95-a728-09ffb566f4cb&amp;RecommendationID=4a208add-5fa8-4656-9c2c-69ef9e0ccec4&amp;CombinationID=b48cfa7c-e7ec-4b1c-8464-4788cf0d0511">قوانین بلیط</a>
</div>
</div>
<div class="search-result flights-boxs depart" amount=206000 airline="Y9," flightType=NoneStop SourceDepartTime=0620 SourceArrivalTime=0000 DestinationDepartTime=0620 DestinationArrivalTime=0000 CombinationID=5832dee9-4155-4b11-bbc8-6fb33b484398 CabinTypeName="اکونومی">
<div class=sr-order>
<img class=sr-img src="/Uploads/Airlines/Logo/Y9.png" alt="" title=""/>
<span class=descr>قیمت برای 1 مسافر</span>
<span class=price>206,000 تومان</span>
<span class=city>کیش ایر - بوئينگ</span>
<button name=select class="btn btn-orange item-submit depart" onclick="CharterAlert(this)">انتخاب</button>
</div>
<div class=sr-info>
<div class=sr-info-went>
<div class=one>
<span class=hour>06:20</span>
<span class=name>تهران - مهرآباد</span>
<span class=abbr>THR</span>
</div>
<div class=time>
<span class=val></span>
<div class=arrow>
<span class=arrow-width></span>
<span class="icon ion-arrow-left-b went" title=417b38b5-8d5c-4b3a-993d-50ef77c879a4></span>
</div>
</div>
<div class=two>
<span class=hour>
</span>
<span class=name>کيش</span>
<span class=abbr>KIH</span>
</div>
<div class=stop>
<span class=title>غیرقابل استرداد</span>
<span class=title title=X>چارتر</span>
<span class=title>اکونومی</span>
<span class=title>ظرفیت : 5 نفر</span>
</div>
</div>
</div>
<div class=sr-other>
<a class="btn btn-default left rules-btn" data-ajax=true data-ajax-begin="InProgressBlockUIEmpty();" data-ajax-method=Get data-ajax-success="BlockUIAlert(data);" href="/fa/FlightResult/FlightRule?FSL_Id=cc845d61-5af9-4c95-a728-09ffb566f4cb&amp;RecommendationID=a5e3f3c2-6bee-4fa3-a92e-e3dad50f86fa&amp;CombinationID=5832dee9-4155-4b11-bbc8-6fb33b484398">قوانین بلیط</a>
</div>
</div>
<div class="search-result flights-boxs depart" amount=206000 airline="Y9," flightType=NoneStop SourceDepartTime=1245 SourceArrivalTime=0000 DestinationDepartTime=1245 DestinationArrivalTime=0000 CombinationID=cd4b26a3-9af1-444d-8a9b-8155006b63d2 CabinTypeName="اکونومی">
<div class=sr-order>
<img class=sr-img src="/Uploads/Airlines/Logo/Y9.png" alt="" title=""/>
<span class=descr>قیمت برای 1 مسافر</span>
<span class=price>206,000 تومان</span>
<span class=city>کیش ایر - بوئينگ</span>
<button name=select class="btn btn-orange item-submit depart" onclick="CharterAlert(this)">انتخاب</button>
</div>
<div class=sr-info>
<div class=sr-info-went>
<div class=one>
<span class=hour>12:45</span>
<span class=name>تهران - مهرآباد</span>
<span class=abbr>THR</span>
</div>
<div class=time>
<span class=val></span>
<div class=arrow>
<span class=arrow-width></span>
<span class="icon ion-arrow-left-b went" title=417b38b5-8d5c-4b3a-993d-50ef77c879a4></span>
</div>
</div>
<div class=two>
<span class=hour>
</span>
<span class=name>کيش</span>
<span class=abbr>KIH</span>
</div>
<div class=stop>
<span class=title>غیرقابل استرداد</span>
<span class=title title=X>چارتر</span>
<span class=title>اکونومی</span>
<span class=title>ظرفیت : 5 نفر</span>
</div>
</div>
</div>
<div class=sr-other>
<a class="btn btn-default left rules-btn" data-ajax=true data-ajax-begin="InProgressBlockUIEmpty();" data-ajax-method=Get data-ajax-success="BlockUIAlert(data);" href="/fa/FlightResult/FlightRule?FSL_Id=cc845d61-5af9-4c95-a728-09ffb566f4cb&amp;RecommendationID=5bfa5b88-1bcf-491f-8a0b-be689edc7e34&amp;CombinationID=cd4b26a3-9af1-444d-8a9b-8155006b63d2">قوانین بلیط</a>
</div>
</div>
<div class="search-result flights-boxs depart" amount=206000 airline="Y9," flightType=NoneStop SourceDepartTime=0620 SourceArrivalTime=0000 DestinationDepartTime=0620 DestinationArrivalTime=0000 CombinationID=a817d99f-2eb9-4df5-8b78-8443d86cab31 CabinTypeName="اکونومی">
<div class=sr-order>
<img class=sr-img src="/Uploads/Airlines/Logo/Y9.png" alt="" title=""/>
<span class=descr>قیمت برای 1 مسافر</span>
<span class=price>206,000 تومان</span>
<span class=city>کیش ایر - بوئينگ MD</span>
<button name=select class="btn btn-orange item-submit depart" onclick="CharterAlert(this)">انتخاب</button>
</div>
<div class=sr-info>
<div class=sr-info-went>
<div class=one>
<span class=hour>06:20</span>
<span class=name>تهران - مهرآباد</span>
<span class=abbr>THR</span>
</div>
<div class=time>
<span class=val></span>
<div class=arrow>
<span class=arrow-width></span>
<span class="icon ion-arrow-left-b went" title=417b38b5-8d5c-4b3a-993d-50ef77c879a4></span>
</div>
</div>
<div class=two>
<span class=hour>
</span>
<span class=name>کيش</span>
<span class=abbr>KIH</span>
</div>
<div class=stop>
<span class=title>غیرقابل استرداد</span>
<span class=title title=X>چارتر</span>
<span class=title>اکونومی</span>
<span class=title>ظرفیت : 2 نفر</span>
</div>
</div>
</div>
<div class=sr-other>
<a class="btn btn-default left rules-btn" data-ajax=true data-ajax-begin="InProgressBlockUIEmpty();" data-ajax-method=Get data-ajax-success="BlockUIAlert(data);" href="/fa/FlightResult/FlightRule?FSL_Id=cc845d61-5af9-4c95-a728-09ffb566f4cb&amp;RecommendationID=17ec386e-139a-48b0-9737-60409f3dafa8&amp;CombinationID=a817d99f-2eb9-4df5-8b78-8443d86cab31">قوانین بلیط</a>
</div>
</div>
<div class="search-result flights-boxs depart" amount=216300 airline="Y9," flightType=NoneStop SourceDepartTime=1715 SourceArrivalTime=0000 DestinationDepartTime=1715 DestinationArrivalTime=0000 CombinationID=3be2382b-8ac3-4fb0-b18d-563aab16f932 CabinTypeName="اکونومی">
<div class=sr-order>
<img class=sr-img src="/Uploads/Airlines/Logo/Y9.png" alt="" title=""/>
<span class=descr>قیمت برای 1 مسافر</span>
<span class=price>216,300 تومان</span>
<span class=city>کیش ایر - بوئينگ MD</span>
<button name=select class="btn btn-orange item-submit depart" onclick="CharterAlert(this)">انتخاب</button>
</div>
<div class=sr-info>
<div class=sr-info-went>
<div class=one>
<span class=hour>17:15</span>
<span class=name>تهران - مهرآباد</span>
<span class=abbr>THR</span>
</div>
<div class=time>
<span class=val></span>
<div class=arrow>
<span class=arrow-width></span>
<span class="icon ion-arrow-left-b went" title=417b38b5-8d5c-4b3a-993d-50ef77c879a4></span>
</div>
</div>
<div class=two>
<span class=hour>
</span>
<span class=name>کيش</span>
<span class=abbr>KIH</span>
</div>
<div class=stop>
<span class=title>غیرقابل استرداد</span>
<span class=title title=X>چارتر</span>
<span class=title>اکونومی</span>
<span class=title>ظرفیت : 2 نفر</span>
</div>
</div>
</div>
<div class=sr-other>
<a class="btn btn-default left rules-btn" data-ajax=true data-ajax-begin="InProgressBlockUIEmpty();" data-ajax-method=Get data-ajax-success="BlockUIAlert(data);" href="/fa/FlightResult/FlightRule?FSL_Id=cc845d61-5af9-4c95-a728-09ffb566f4cb&amp;RecommendationID=d853f68c-b35a-48ed-86fa-6673a71b25dc&amp;CombinationID=3be2382b-8ac3-4fb0-b18d-563aab16f932">قوانین بلیط</a>
</div>
</div>
<div class="search-result flights-boxs depart" amount=226600 airline="JI," flightType=NoneStop SourceDepartTime=1915 SourceArrivalTime=0000 DestinationDepartTime=1915 DestinationArrivalTime=0000 CombinationID=e36cc604-8010-4437-b51a-2819a1392285 CabinTypeName="اکونومی">
<div class=sr-order>
<img class=sr-img src="/Uploads/Airlines/Logo/JI.png" alt="" title=""/>
<span class=descr>قیمت برای 1 مسافر</span>
<span class=price>226,600 تومان</span>
<span class=city>معراج - ايرباس 320</span>
<button name=select class="btn btn-orange item-submit depart" onclick="CharterAlert(this)">انتخاب</button>
</div>
<div class=sr-info>
<div class=sr-info-went>
<div class=one>
<span class=hour>19:15</span>
<span class=name>تهران</span>
<span class=abbr></span>
</div>
<div class=time>
<span class=val></span>
<div class=arrow>
<span class=arrow-width></span>
<span class="icon ion-arrow-left-b went" title=c9a7c7a8-d800-4b73-b471-74e46398c24c></span>
</div>
</div>
<div class=two>
<span class=hour>
</span>
<span class=name>کیش</span>
<span class=abbr></span>
</div>
<div class=stop>
<span class=title>غیرقابل استرداد</span>
<span class=title title=R>چارتر</span>
<span class=title>اکونومی</span>
<span class=title>ظرفیت : 5 نفر</span>
</div>
</div>
</div>
<div class=sr-other>
<a class="btn btn-default left rules-btn" data-ajax=true data-ajax-begin="InProgressBlockUIEmpty();" data-ajax-method=Get data-ajax-success="BlockUIAlert(data);" href="/fa/FlightResult/FlightRule?FSL_Id=cc845d61-5af9-4c95-a728-09ffb566f4cb&amp;RecommendationID=2620f01c-99a4-4f0f-acb3-e13502976ccd&amp;CombinationID=e36cc604-8010-4437-b51a-2819a1392285">قوانین بلیط</a>
</div>
</div>
<div class="search-result flights-boxs depart" amount=226600 airline="SR," flightType=NoneStop SourceDepartTime=1740 SourceArrivalTime=0000 DestinationDepartTime=1740 DestinationArrivalTime=0000 CombinationID=89afa53d-8957-47e6-811f-c7eaf2ae84c2 CabinTypeName="اکونومی">
<div class=sr-order>
<img class=sr-img src="/Uploads/Airlines/Logo/SR.png" alt="" title=""/>
<span class=descr>قیمت برای 1 مسافر</span>
<span class=price>226,600 تومان</span>
<span class=city>سپهران - بوئينگ 737</span>
<button name=select class="btn btn-orange item-submit depart" onclick="CharterAlert(this)">انتخاب</button>
</div>
<div class=sr-info>
<div class=sr-info-went>
<div class=one>
<span class=hour>17:40</span>
<span class=name>تهران</span>
<span class=abbr></span>
</div>
<div class=time>
<span class=val></span>
<div class=arrow>
<span class=arrow-width></span>
<span class="icon ion-arrow-left-b went" title=c9a7c7a8-d800-4b73-b471-74e46398c24c></span>
</div>
</div>
<div class=two>
<span class=hour>
</span>
<span class=name>کیش</span>
<span class=abbr></span>
</div>
<div class=stop>
<span class=title>غیرقابل استرداد</span>
<span class=title title=R>چارتر</span>
<span class=title>اکونومی</span>
<span class=title>ظرفیت : 5 نفر</span>
</div>
</div>
</div>
<div class=sr-other>
<a class="btn btn-default left rules-btn" data-ajax=true data-ajax-begin="InProgressBlockUIEmpty();" data-ajax-method=Get data-ajax-success="BlockUIAlert(data);" href="/fa/FlightResult/FlightRule?FSL_Id=cc845d61-5af9-4c95-a728-09ffb566f4cb&amp;RecommendationID=1acef630-d96b-437e-b67d-6f10a1c11813&amp;CombinationID=89afa53d-8957-47e6-811f-c7eaf2ae84c2">قوانین بلیط</a>
</div>
</div>
<div class="search-result flights-boxs depart" amount=236900 airline="Y9," flightType=NoneStop SourceDepartTime=1000 SourceArrivalTime=0000 DestinationDepartTime=1000 DestinationArrivalTime=0000 CombinationID=41851627-099e-43ec-bd5a-d5119024f2d7 CabinTypeName="اکونومی">
<div class=sr-order>
<img class=sr-img src="/Uploads/Airlines/Logo/Y9.png" alt="" title=""/>
<span class=descr>قیمت برای 1 مسافر</span>
<span class=price>236,900 تومان</span>
<span class=city>کیش ایر - بوئينگ MD</span>
<button name=select class="btn btn-orange item-submit depart" onclick="CharterAlert(this)">انتخاب</button>
</div>
<div class=sr-info>
<div class=sr-info-went>
<div class=one>
<span class=hour>10:00</span>
<span class=name>تهران - مهرآباد</span>
<span class=abbr>THR</span>
</div>
<div class=time>
<span class=val></span>
<div class=arrow>
<span class=arrow-width></span>
<span class="icon ion-arrow-left-b went" title=417b38b5-8d5c-4b3a-993d-50ef77c879a4></span>
</div>
</div>
<div class=two>
<span class=hour>
</span>
<span class=name>کيش</span>
<span class=abbr>KIH</span>
</div>
<div class=stop>
<span class=title>غیرقابل استرداد</span>
<span class=title title=X>چارتر</span>
<span class=title>اکونومی</span>
<span class=title>ظرفیت : 2 نفر</span>
</div>
</div>
</div>
<div class=sr-other>
<a class="btn btn-default left rules-btn" data-ajax=true data-ajax-begin="InProgressBlockUIEmpty();" data-ajax-method=Get data-ajax-success="BlockUIAlert(data);" href="/fa/FlightResult/FlightRule?FSL_Id=cc845d61-5af9-4c95-a728-09ffb566f4cb&amp;RecommendationID=d68590f9-43a4-4f55-a690-7af87c051df3&amp;CombinationID=41851627-099e-43ec-bd5a-d5119024f2d7">قوانین بلیط</a>
</div>
</div>
<div class="search-result flights-boxs depart" amount=247200 airline="JI," flightType=NoneStop SourceDepartTime=1915 SourceArrivalTime=0000 DestinationDepartTime=1915 DestinationArrivalTime=0000 CombinationID=38aadc53-4ed1-4266-9b4c-2de4a1b868a8 CabinTypeName="اکونومی">
<div class=sr-order>
<img class=sr-img src="/Uploads/Airlines/Logo/JI.png" alt="" title=""/>
<span class=descr>قیمت برای 1 مسافر</span>
<span class=price>247,200 تومان</span>
<span class=city>معراج - ايرباس 320</span>
<button name=select class="btn btn-orange item-submit depart" onclick="CharterAlert(this)">انتخاب</button>
</div>
<div class=sr-info>
<div class=sr-info-went>
<div class=one>
<span class=hour>19:15</span>
<span class=name>تهران</span>
<span class=abbr></span>
</div>
<div class=time>
<span class=val></span>
<div class=arrow>
<span class=arrow-width></span>
<span class="icon ion-arrow-left-b went" title=c9a7c7a8-d800-4b73-b471-74e46398c24c></span>
</div>
</div>
<div class=two>
<span class=hour>
</span>
<span class=name>کیش</span>
<span class=abbr></span>
</div>
<div class=stop>
<span class=title>غیرقابل استرداد</span>
<span class=title title=R>چارتر</span>
<span class=title>اکونومی</span>
<span class=title>ظرفیت : 5 نفر</span>
</div>
</div>
</div>
<div class=sr-other>
<a class="btn btn-default left rules-btn" data-ajax=true data-ajax-begin="InProgressBlockUIEmpty();" data-ajax-method=Get data-ajax-success="BlockUIAlert(data);" href="/fa/FlightResult/FlightRule?FSL_Id=cc845d61-5af9-4c95-a728-09ffb566f4cb&amp;RecommendationID=cb250ece-5bf3-4047-a632-6b9def73942e&amp;CombinationID=38aadc53-4ed1-4266-9b4c-2de4a1b868a8">قوانین بلیط</a>
</div>
</div>
<div class="search-result flights-boxs depart" amount=247200 airline="HH," flightType=NoneStop SourceDepartTime=1300 SourceArrivalTime=0000 DestinationDepartTime=1300 DestinationArrivalTime=0000 CombinationID=dd30043f-3e87-479f-9f5c-efb3e07f1d5a CabinTypeName="اکونومی">
<div class=sr-order>
<img class=sr-img src="/Uploads/Airlines/Logo/HH.png" alt="" title=""/>
<span class=descr>قیمت برای 1 مسافر</span>
<span class=price>247,200 تومان</span>
<span class=city>تابان - بوئينگ MD</span>
<button name=select class="btn btn-orange item-submit depart" onclick="CharterAlert(this)">انتخاب</button>
</div>
<div class=sr-info>
<div class=sr-info-went>
<div class=one>
<span class=hour>13:00</span>
<span class=name>تهران</span>
<span class=abbr></span>
</div>
<div class=time>
<span class=val></span>
<div class=arrow>
<span class=arrow-width></span>
<span class="icon ion-arrow-left-b went" title=c9a7c7a8-d800-4b73-b471-74e46398c24c></span>
</div>
</div>
<div class=two>
<span class=hour>
</span>
<span class=name>کیش</span>
<span class=abbr></span>
</div>
<div class=stop>
<span class=title>غیرقابل استرداد</span>
<span class=title title=R>چارتر</span>
<span class=title>اکونومی</span>
<span class=title>ظرفیت : 5 نفر</span>
</div>
</div>
</div>
<div class=sr-other>
<a class="btn btn-default left rules-btn" data-ajax=true data-ajax-begin="InProgressBlockUIEmpty();" data-ajax-method=Get data-ajax-success="BlockUIAlert(data);" href="/fa/FlightResult/FlightRule?FSL_Id=cc845d61-5af9-4c95-a728-09ffb566f4cb&amp;RecommendationID=1e00b074-492b-4062-9ab2-cc29e46f4ca9&amp;CombinationID=dd30043f-3e87-479f-9f5c-efb3e07f1d5a">قوانین بلیط</a>
</div>
</div>
<div class="search-result flights-boxs depart" amount=257500 airline="Y9," flightType=NoneStop SourceDepartTime=2130 SourceArrivalTime=0000 DestinationDepartTime=2130 DestinationArrivalTime=0000 CombinationID=7d801e9f-2319-4d76-9f9c-758d8fd941e1 CabinTypeName="اکونومی">
<div class=sr-order>
<img class=sr-img src="/Uploads/Airlines/Logo/Y9.png" alt="" title=""/>
<span class=descr>قیمت برای 1 مسافر</span>
<span class=price>257,500 تومان</span>
<span class=city>کیش ایر - ايرباس</span>
<button name=select class="btn btn-orange item-submit depart" onclick="CharterAlert(this)">انتخاب</button>
</div>
<div class=sr-info>
<div class=sr-info-went>
<div class=one>
<span class=hour>21:30</span>
<span class=name>تهران - مهرآباد</span>
<span class=abbr>THR</span>
</div>
<div class=time>
<span class=val></span>
<div class=arrow>
<span class=arrow-width></span>
<span class="icon ion-arrow-left-b went" title=417b38b5-8d5c-4b3a-993d-50ef77c879a4></span>
</div>
</div>
<div class=two>
<span class=hour>
</span>
<span class=name>کيش</span>
<span class=abbr>KIH</span>
</div>
<div class=stop>
<span class=title>غیرقابل استرداد</span>
<span class=title title=X>چارتر</span>
<span class=title>اکونومی</span>
<span class=title>ظرفیت : 5 نفر</span>
</div>
</div>
</div>
<div class=sr-other>
<a class="btn btn-default left rules-btn" data-ajax=true data-ajax-begin="InProgressBlockUIEmpty();" data-ajax-method=Get data-ajax-success="BlockUIAlert(data);" href="/fa/FlightResult/FlightRule?FSL_Id=cc845d61-5af9-4c95-a728-09ffb566f4cb&amp;RecommendationID=e5f29718-5986-4530-9a65-2e9a0ef9acb9&amp;CombinationID=7d801e9f-2319-4d76-9f9c-758d8fd941e1">قوانین بلیط</a>
</div>
</div>
<div class="search-result flights-boxs depart" amount=278100 airline="HH," flightType=NoneStop SourceDepartTime=1300 SourceArrivalTime=0000 DestinationDepartTime=1300 DestinationArrivalTime=0000 CombinationID=9d5a2278-c7a0-44cd-94f3-a18c0468b4f7 CabinTypeName="اکونومی">
<div class=sr-order>
<img class=sr-img src="/Uploads/Airlines/Logo/HH.png" alt="" title=""/>
<span class=descr>قیمت برای 1 مسافر</span>
<span class=price>278,100 تومان</span>
<span class=city>تابان - بوئينگ MD</span>
<button name=select class="btn btn-orange item-submit depart" onclick="CharterAlert(this)">انتخاب</button>
</div>
<div class=sr-info>
<div class=sr-info-went>
<div class=one>
<span class=hour>13:00</span>
<span class=name>تهران</span>
<span class=abbr></span>
</div>
<div class=time>
<span class=val></span>
<div class=arrow>
<span class=arrow-width></span>
<span class="icon ion-arrow-left-b went" title=c9a7c7a8-d800-4b73-b471-74e46398c24c></span>
</div>
</div>
<div class=two>
<span class=hour>
</span>
<span class=name>کیش</span>
<span class=abbr></span>
</div>
<div class=stop>
<span class=title>غیرقابل استرداد</span>
<span class=title title=R>چارتر</span>
<span class=title>اکونومی</span>
<span class=title>ظرفیت : 5 نفر</span>
</div>
</div>
</div>
<div class=sr-other>
<a class="btn btn-default left rules-btn" data-ajax=true data-ajax-begin="InProgressBlockUIEmpty();" data-ajax-method=Get data-ajax-success="BlockUIAlert(data);" href="/fa/FlightResult/FlightRule?FSL_Id=cc845d61-5af9-4c95-a728-09ffb566f4cb&amp;RecommendationID=ff20cbb0-ef4f-4408-9f65-f3d48c4df302&amp;CombinationID=9d5a2278-c7a0-44cd-94f3-a18c0468b4f7">قوانین بلیط</a>
</div>
</div>
<div class="search-result flights-boxs depart" amount=309000 airline="Y9," flightType=NoneStop SourceDepartTime=1000 SourceArrivalTime=0000 DestinationDepartTime=1000 DestinationArrivalTime=0000 CombinationID=6676e46b-ea9d-4dd7-a433-7a31697f19e9 CabinTypeName="اکونومی">
<div class=sr-order>
<img class=sr-img src="/Uploads/Airlines/Logo/Y9.png" alt="" title=""/>
<span class=descr>قیمت برای 1 مسافر</span>
<span class=price>309,000 تومان</span>
<span class=city>کیش ایر - B-MD</span>
<button name=select class="btn btn-orange item-submit depart" onclick="CharterAlert(this)">انتخاب</button>
</div>
<div class=sr-info>
<div class=sr-info-went>
<div class=one>
<span class=hour>10:00</span>
<span class=name>تهران</span>
<span class=abbr></span>
</div>
<div class=time>
<span class=val></span>
<div class=arrow>
<span class=arrow-width></span>
<span class="icon ion-arrow-left-b went" title=c9a7c7a8-d800-4b73-b471-74e46398c24c></span>
</div>
</div>
<div class=two>
<span class=hour>
</span>
<span class=name>کیش</span>
<span class=abbr></span>
</div>
<div class=stop>
<span class=title>غیرقابل استرداد</span>
<span class=title title=R>چارتر</span>
<span class=title>اکونومی</span>
<span class=title>ظرفیت : 4 نفر</span>
</div>
</div>
</div>
<div class=sr-other>
<a class="btn btn-default left rules-btn" data-ajax=true data-ajax-begin="InProgressBlockUIEmpty();" data-ajax-method=Get data-ajax-success="BlockUIAlert(data);" href="/fa/FlightResult/FlightRule?FSL_Id=cc845d61-5af9-4c95-a728-09ffb566f4cb&amp;RecommendationID=b35db1e7-c62e-4b03-8ade-f8be82d8e5a5&amp;CombinationID=6676e46b-ea9d-4dd7-a433-7a31697f19e9">قوانین بلیط</a>
</div>
</div>
</div>
<div id=Repart-container>
</div>
<div id=continue-container style="display:none;text-align:center;">
<button id=continue-btn class="btn btn-blue-light" style="padding: 14px 40px; font-size: 16px;">ادامه خرید</button>
</div>
<script>$(document).ready(function(){$(".s-count").html('18'+" پرواز موجود است ");});</script>
<style>.unselected{display:none}</style>
